
ansible==2.4.0.0
ansible-lint==3.4.22
anyconfig==0.7.0
arrow==0.12.1
asn1crypto==0.24.0
atomicwrites==1.2.1
attrs==18.2.0
backports.functools-lru-cache==1.5
backports.ssl-match-hostname==3.5.0.1
bcrypt==3.1.4
binaryornot==0.4.4
certifi==2018.8.24
cffi==1.11.5
chardet==3.0.4
click==6.7
colorama==0.3.7
configparser==3.5.0
cookiecutter==1.4.0
cryptography==2.3.1
docker-py==1.10.6
docker-pycreds==0.3.0
enum34==1.1.6
flake8==3.0.4
funcsigs==1.0.2
future==0.16.0
idna==2.7
ipaddress==1.0.22
Jinja2==2.8
jinja2-time==0.2.0
MarkupSafe==1.0
mccabe==0.5.3
molecule==1.20.3
more-itertools==4.3.0
paramiko==2.0.2
pathlib2==2.3.2
pbr==1.10.0
pexpect==4.2.1
pluggy==0.7.1
poyo==0.4.1
ptyprocess==0.6.0
py==1.6.0
pyasn1==0.4.4
pycodestyle==2.0.0
pycparser==2.19
pyflakes==1.2.3
PyNaCl==1.2.1
pytest==3.8.0
python-dateutil==2.7.3
PyYAML==3.12
requests==2.19.1
scandir==1.9.0
sh==1.11
six==1.11.0
tabulate==0.7.5
testinfra==1.4.5
urllib3==1.23
websocket-client==0.53.0
whichcraft==0.4.1
